#Command: "C:\Windows\system32\expand.exe" "c:\users\omert\documents\colamn tools\2\windowskerneldriver\x64\debug\windowskerneldriver\windowskerneldriver.sys" "C:\Users\omert\AppData\Local\Temp\WST\bede6e99-674c-4560-9990-381ac1a10e3d\001"
^C:\USERS\OMERT\DOCUMENTS\COLAMN TOOLS\2\WINDOWSKERNELDRIVER\X64\DEBUG\WINDOWSKERNELDRIVER\
C:\USERS\OMERT\DOCUMENTS\COLAMN TOOLS\2\WINDOWSKERNELDRIVER\X64\DEBUG\WINDOWSKERNELDRIVER\WINDOWSKERNELDRIVER.SYS
C:\WINDOWS\GLOBALIZATION\SORTING\SORTDEFAULT.NLS
