#Command: "C:\Windows\system32\expand.exe" "c:\users\omert\documents\colamn tools\2\windowskerneldriver\x64\debug\windowskerneldriver\windowskerneldriver.inf" "C:\Users\omert\AppData\Local\Temp\WST\0d0fad23-536e-4f72-8258-8bb45d98e979\000"
^C:\USERS\OMERT\DOCUMENTS\COLAMN TOOLS\2\WINDOWSKERNELDRIVER\X64\DEBUG\WINDOWSKERNELDRIVER\
#Command: "C:\Windows\system32\expand.exe" "c:\users\omert\documents\colamn tools\2\windowskerneldriver\x64\debug\windowskerneldriver\windowskerneldriver.inf" "C:\Users\omert\AppData\Local\Temp\WST\5583b8f1-a2a0-44c9-9f3c-1f14282aa202\000"
^C:\USERS\OMERT\DOCUMENTS\COLAMN TOOLS\2\WINDOWSKERNELDRIVER\X64\DEBUG\WINDOWSKERNELDRIVER\
#Command: "C:\Windows\system32\expand.exe" "c:\users\omert\documents\colamn tools\2\windowskerneldriver\x64\debug\windowskerneldriver\windowskerneldriver.inf" "C:\Users\omert\AppData\Local\Temp\WST\9130a064-fa39-4f73-a612-e4069781075c\000"
^C:\USERS\OMERT\DOCUMENTS\COLAMN TOOLS\2\WINDOWSKERNELDRIVER\X64\DEBUG\WINDOWSKERNELDRIVER\
#Command: "C:\Windows\system32\expand.exe" "c:\users\omert\documents\colamn tools\2\windowskerneldriver\x64\debug\windowskerneldriver\windowskerneldriver.inf" "C:\Users\omert\AppData\Local\Temp\WST\d4311265-0424-4e8d-bcc8-224307f91e4d\000"
^C:\USERS\OMERT\DOCUMENTS\COLAMN TOOLS\2\WINDOWSKERNELDRIVER\X64\DEBUG\WINDOWSKERNELDRIVER\
#Command: "C:\Windows\system32\expand.exe" "c:\users\omert\documents\colamn tools\2\windowskerneldriver\x64\debug\windowskerneldriver\windowskerneldriver.inf" "C:\Users\omert\AppData\Local\Temp\WST\6dccecb6-d3ef-49c6-86d0-19aff11755e1\000"
^C:\USERS\OMERT\DOCUMENTS\COLAMN TOOLS\2\WINDOWSKERNELDRIVER\X64\DEBUG\WINDOWSKERNELDRIVER\
#Command: "C:\Windows\system32\expand.exe" "c:\users\omert\documents\colamn tools\2\windowskerneldriver\x64\debug\windowskerneldriver\windowskerneldriver.inf" "C:\Users\omert\AppData\Local\Temp\WST\eab1d9c9-4ddf-476c-87ee-8eb04c068eaa\000"
^C:\USERS\OMERT\DOCUMENTS\COLAMN TOOLS\2\WINDOWSKERNELDRIVER\X64\DEBUG\WINDOWSKERNELDRIVER\
#Command: "C:\Windows\system32\expand.exe" "c:\users\omert\documents\colamn tools\2\windowskerneldriver\x64\debug\windowskerneldriver\windowskerneldriver.inf" "C:\Users\omert\AppData\Local\Temp\WST\2648681b-68ae-4c4e-874c-9067e629ad2a\000"
^C:\USERS\OMERT\DOCUMENTS\COLAMN TOOLS\2\WINDOWSKERNELDRIVER\X64\DEBUG\WINDOWSKERNELDRIVER\
#Command: "C:\Windows\system32\expand.exe" "c:\users\omert\documents\colamn tools\2\windowskerneldriver\x64\debug\windowskerneldriver\windowskerneldriver.inf" "C:\Users\omert\AppData\Local\Temp\WST\f4c6ac4d-7394-4649-885c-9fd4c3e71099\000"
^C:\USERS\OMERT\DOCUMENTS\COLAMN TOOLS\2\WINDOWSKERNELDRIVER\X64\DEBUG\WINDOWSKERNELDRIVER\
#Command: "C:\Windows\system32\expand.exe" "c:\users\omert\documents\colamn tools\2\windowskerneldriver\x64\debug\windowskerneldriver\windowskerneldriver.inf" "C:\Users\omert\AppData\Local\Temp\WST\61193bdf-6f12-48a3-95ca-f2dcf37b0b72\000"
^C:\USERS\OMERT\DOCUMENTS\COLAMN TOOLS\2\WINDOWSKERNELDRIVER\X64\DEBUG\WINDOWSKERNELDRIVER\
#Command: "C:\Windows\system32\expand.exe" "c:\users\omert\documents\colamn tools\2\windowskerneldriver\x64\debug\windowskerneldriver\windowskerneldriver.inf" "C:\Users\omert\AppData\Local\Temp\WST\2ed8d8c6-aeb2-4102-a0c3-af180acebea4\000"
^C:\USERS\OMERT\DOCUMENTS\COLAMN TOOLS\2\WINDOWSKERNELDRIVER\X64\DEBUG\WINDOWSKERNELDRIVER\
#Command: "C:\Windows\system32\expand.exe" "c:\users\omert\documents\colamn tools\2\windowskerneldriver\x64\debug\windowskerneldriver\windowskerneldriver.inf" "C:\Users\omert\AppData\Local\Temp\WST\2ffdb003-38ff-4da8-8bf0-e0f64c040948\000"
^C:\USERS\OMERT\DOCUMENTS\COLAMN TOOLS\2\WINDOWSKERNELDRIVER\X64\DEBUG\WINDOWSKERNELDRIVER\
#Command: "C:\Windows\system32\expand.exe" "c:\users\omert\documents\colamn tools\2\windowskerneldriver\x64\debug\windowskerneldriver\windowskerneldriver.inf" "C:\Users\omert\AppData\Local\Temp\WST\c5564204-8357-419e-9ae5-fdd7c8627d83\000"
^C:\USERS\OMERT\DOCUMENTS\COLAMN TOOLS\2\WINDOWSKERNELDRIVER\X64\DEBUG\WINDOWSKERNELDRIVER\
#Command: "C:\Windows\system32\expand.exe" "c:\users\omert\documents\colamn tools\2\windowskerneldriver\x64\debug\windowskerneldriver\windowskerneldriver.inf" "C:\Users\omert\AppData\Local\Temp\WST\8369caf8-10b7-49dc-9c55-1c37f8507845\000"
^C:\USERS\OMERT\DOCUMENTS\COLAMN TOOLS\2\WINDOWSKERNELDRIVER\X64\DEBUG\WINDOWSKERNELDRIVER\
#Command: "C:\Windows\system32\expand.exe" "c:\users\omert\documents\colamn tools\2\windowskerneldriver\x64\debug\windowskerneldriver\windowskerneldriver.inf" "C:\Users\omert\AppData\Local\Temp\WST\7c567cd1-1b5b-4c96-a222-2c2d30fb5fda\000"
^C:\USERS\OMERT\DOCUMENTS\COLAMN TOOLS\2\WINDOWSKERNELDRIVER\X64\DEBUG\WINDOWSKERNELDRIVER\
#Command: "C:\Windows\system32\expand.exe" "c:\users\omert\documents\colamn tools\2\windowskerneldriver\x64\debug\windowskerneldriver\windowskerneldriver.inf" "C:\Users\omert\AppData\Local\Temp\WST\9f7905c1-9ec7-4076-8150-1e24a282f530\000"
^C:\USERS\OMERT\DOCUMENTS\COLAMN TOOLS\2\WINDOWSKERNELDRIVER\X64\DEBUG\WINDOWSKERNELDRIVER\
#Command: "C:\Windows\system32\expand.exe" "c:\users\omert\documents\colamn tools\2\windowskerneldriver\x64\debug\windowskerneldriver\windowskerneldriver.inf" "C:\Users\omert\AppData\Local\Temp\WST\0d8c6e20-31f5-4260-a192-48adaa60488c\000"
^C:\USERS\OMERT\DOCUMENTS\COLAMN TOOLS\2\WINDOWSKERNELDRIVER\X64\DEBUG\WINDOWSKERNELDRIVER\
#Command: "C:\Windows\system32\expand.exe" "c:\users\omert\documents\colamn tools\2\windowskerneldriver\x64\debug\windowskerneldriver\windowskerneldriver.inf" "C:\Users\omert\AppData\Local\Temp\WST\bede6e99-674c-4560-9990-381ac1a10e3d\000"
^C:\USERS\OMERT\DOCUMENTS\COLAMN TOOLS\2\WINDOWSKERNELDRIVER\X64\DEBUG\WINDOWSKERNELDRIVER\
#Command: "C:\Windows\system32\expand.exe" "c:\users\omert\documents\colamn tools\2\windowskerneldriver\x64\debug\windowskerneldriver\windowskerneldriver.inf" "C:\Users\omert\AppData\Local\Temp\WST\7b0c0623-49f8-4046-bbd2-27afccfa2302\000"
^C:\USERS\OMERT\DOCUMENTS\COLAMN TOOLS\2\WINDOWSKERNELDRIVER\X64\DEBUG\WINDOWSKERNELDRIVER\
#Command: "C:\Windows\system32\expand.exe" "c:\users\omert\documents\colamn tools\2\windowskerneldriver\x64\debug\windowskerneldriver\windowskerneldriver.inf" "C:\Users\omert\AppData\Local\Temp\WST\fa29f4f8-f343-46bc-b8ff-2c4cfb39b8e8\000"
^C:\USERS\OMERT\DOCUMENTS\COLAMN TOOLS\2\WINDOWSKERNELDRIVER\X64\DEBUG\WINDOWSKERNELDRIVER\
#Command: "C:\Windows\system32\expand.exe" "c:\users\omert\documents\colamn tools\2\windowskerneldriver\x64\debug\windowskerneldriver\windowskerneldriver.inf" "C:\Users\omert\AppData\Local\Temp\WST\1331c097-a3c4-4aa5-b17b-08deceb4e234\000"
^C:\USERS\OMERT\DOCUMENTS\COLAMN TOOLS\2\WINDOWSKERNELDRIVER\X64\DEBUG\WINDOWSKERNELDRIVER\
#Command: "C:\Windows\system32\expand.exe" "c:\users\omert\documents\colamn tools\2\windowskerneldriver\x64\debug\windowskerneldriver\windowskerneldriver.inf" "C:\Users\omert\AppData\Local\Temp\WST\f563758e-3624-4ecb-8cca-be4460382d39\000"
^C:\USERS\OMERT\DOCUMENTS\COLAMN TOOLS\2\WINDOWSKERNELDRIVER\X64\DEBUG\WINDOWSKERNELDRIVER\
#Command: "C:\Windows\system32\expand.exe" "c:\users\omert\documents\colamn tools\2\windowskerneldriver\x64\debug\windowskerneldriver\windowskerneldriver.inf" "C:\Users\omert\AppData\Local\Temp\WST\f70c09bc-95db-4ac2-a488-f85f3ede9441\000"
^C:\USERS\OMERT\DOCUMENTS\COLAMN TOOLS\2\WINDOWSKERNELDRIVER\X64\DEBUG\WINDOWSKERNELDRIVER\
